<?xml version="1.0" encoding="UTF-8" standalone="no"?>
<!-- Created with Inkscape (http://www.inkscape.org/) -->
<svg
   xmlns:dc="http://purl.org/dc/elements/1.1/"
   xmlns:cc="http://creativecommons.org/ns#"
   xmlns:rdf="http://www.w3.org/1999/02/22-rdf-syntax-ns#"
   xmlns:svg="http://www.w3.org/2000/svg"
   xmlns="http://www.w3.org/2000/svg"
   xmlns:xlink="http://www.w3.org/1999/xlink"
   xmlns:sodipodi="http://sodipodi.sourceforge.net/DTD/sodipodi-0.dtd"
   xmlns:inkscape="http://www.inkscape.org/namespaces/inkscape"
   width="744.09448819"
   height="1052.3622047"
   id="svg2"
   sodipodi:version="0.32"
   inkscape:version="0.46"
   sodipodi:docname="drawing.svg"
   inkscape:output_extension="org.inkscape.output.svg.inkscape"
   inkscape:export-filename="C:\Documents and Settings\michal.brutvan\Desktop\Local Documents\My Projects\KeyboardLock\drawing.png"
   inkscape:export-xdpi="90"
   inkscape:export-ydpi="90">
  <defs
     id="defs4">
    <linearGradient
       id="linearGradient2425"
       inkscape:collect="always">
      <stop
         id="stop2427"
         offset="0"
         style="stop-color:#ffd5d5;stop-opacity:1" />
      <stop
         id="stop2429"
         offset="1"
         style="stop-color:#d40000;stop-opacity:0;" />
    </linearGradient>
    <linearGradient
       inkscape:collect="always"
       id="linearGradient2413">
      <stop
         style="stop-color:#d40000;stop-opacity:1;"
         offset="0"
         id="stop2415" />
      <stop
         style="stop-color:#d40000;stop-opacity:0;"
         offset="1"
         id="stop2417" />
    </linearGradient>
    <inkscape:perspective
       sodipodi:type="inkscape:persp3d"
       inkscape:vp_x="-767.48047 : 74.0826 : 1"
       inkscape:vp_y="1.8334227e-13 : 2496.8263 : 0"
       inkscape:vp_z="1460.5655 : 74.0826 : 1"
       inkscape:persp3d-origin="346.54252 : -363.84502 : 1"
       id="perspective10" />
    <linearGradient
       inkscape:collect="always"
       xlink:href="#linearGradient2413"
       id="linearGradient2419"
       x1="532.94434"
       y1="442.31674"
       x2="537.00226"
       y2="853.52258"
       gradientUnits="userSpaceOnUse" />
    <linearGradient
       inkscape:collect="always"
       xlink:href="#linearGradient2425"
       id="linearGradient2423"
       gradientUnits="userSpaceOnUse"
       x1="219.75764"
       y1="245.53767"
       x2="225.89264"
       y2="707.43628"
       gradientTransform="matrix(1.0339323,0,0,1.0385701,-5.3979073,-12.478182)" />
  </defs>
  <sodipodi:namedview
     id="base"
     pagecolor="#ffffff"
     bordercolor="#666666"
     borderopacity="1.0"
     gridtolerance="10000"
     guidetolerance="10"
     objecttolerance="10"
     inkscape:pageopacity="0.0"
     inkscape:pageshadow="2"
     inkscape:zoom="2.0129083"
     inkscape:cx="337.89063"
     inkscape:cy="549.39976"
     inkscape:document-units="px"
     inkscape:current-layer="layer1"
     showgrid="false"
     inkscape:window-width="1400"
     inkscape:window-height="983"
     inkscape:window-x="-4"
     inkscape:window-y="-4" />
  <metadata
     id="metadata7">
    <rdf:RDF>
      <cc:Work
         rdf:about="">
        <dc:format>image/svg+xml</dc:format>
        <dc:type
           rdf:resource="http://purl.org/dc/dcmitype/StillImage" />
      </cc:Work>
    </rdf:RDF>
  </metadata>
  <g
     inkscape:label="Layer 1"
     inkscape:groupmode="layer"
     id="layer1">
    <rect
       style="fill:url(#linearGradient2419);fill-opacity:1;fill-rule:evenodd;stroke:#000000;stroke-width:1px;stroke-linecap:butt;stroke-linejoin:miter;stroke-opacity:1"
       id="rect2411"
       width="407.14783"
       height="385.50543"
       x="159.61278"
       y="311.10965"
       ry="10.432666" />
    <rect
       y="310.63098"
       x="159.63089"
       height="386.95956"
       width="407.6084"
       id="rect2421"
       style="fill:url(#linearGradient2423);fill-opacity:1;fill-rule:evenodd;stroke:#000000;stroke-width:1.03624856px;stroke-linecap:butt;stroke-linejoin:miter;stroke-opacity:1"
       ry="13.930784"
       rx="13.354925" />
    <rect
       style="fill:#ffffff;fill-rule:evenodd;stroke:#000000;stroke-width:0;stroke-linecap:butt;stroke-linejoin:miter;stroke-opacity:1;fill-opacity:1;stroke-miterlimit:4;stroke-dasharray:none"
       id="rect2437"
       width="196.33321"
       height="159.07393"
       x="268.71545"
       y="463.11505"
       ry="9.1685152" />
    <path
       sodipodi:type="arc"
       style="fill:none;fill-opacity:1;fill-rule:nonzero;stroke:#ffffff;stroke-width:16.66771698;stroke-miterlimit:4;stroke-dasharray:none"
       id="path2449"
       sodipodi:cx="396.44131"
       sodipodi:cy="365.7934"
       sodipodi:rx="60.112026"
       sodipodi:ry="49.182568"
       d="M 336.36316,367.4443 A 60.112026,49.182568 0 1 1 456.52377,367.33601"
       sodipodi:start="3.1080194"
       sodipodi:end="6.3145555"
       sodipodi:open="true"
       transform="matrix(0.9822814,0,0,1.8767436,-22.286421,-224.35762)" />
    <path
       sodipodi:type="arc"
       style="fill:#ff5555;fill-rule:evenodd;stroke:#000000;stroke-width:0;stroke-linecap:butt;stroke-linejoin:miter;stroke-miterlimit:4;stroke-dasharray:none;stroke-opacity:1"
       id="path4808"
       sodipodi:cx="365.64011"
       sodipodi:cy="516.57025"
       sodipodi:rx="16.39419"
       sodipodi:ry="16.145792"
       d="M 382.02561,517.09571 A 16.39419,16.145792 0 1 1 382.02623,517.07667 L 365.64011,516.57025 z"
       sodipodi:start="0.032550375"
       sodipodi:end="6.3145555"
       transform="translate(0.4967936,17.387777)" />
    <rect
       style="fill:#ff5555;fill-rule:evenodd;stroke:#000000;stroke-width:0;stroke-linecap:butt;stroke-linejoin:miter;stroke-miterlimit:4;stroke-dasharray:none;stroke-opacity:1"
       id="rect4810"
       width="20.145662"
       height="51.443661"
       x="356.31247"
       y="531.3371"
       ry="6.6777825" />
  </g>
</svg>
